{"data":[{"id":293886,"tone_id":51949,"user_id":"57af4bb9-80fe-43be-93b3-e3c9e9d92717","created_at":"2026-01-29T12:19:44.3+00:00","updated_at":"2026-04-30T18:52:36.861588+00:00","name":"Plexi 51 DI#03","model_url":"https://www.tone3000.com/api/v1/models/293886/download/ix2qbhsyea.nam","size":"standard","architecture_version":"1"},{"id":291940,"tone_id":51949,"user_id":"57af4bb9-80fe-43be-93b3-e3c9e9d92717","created_at":"2026-01-27T10:33:55.698+00:00","updated_at":"2026-04-30T18:52:36.861588+00:00","name":"Ceriatone Plexi 51 All access DI","model_url":"https://www.tone3000.com/api/v1/models/291940/download/lwktn7ebdmi.nam","size":"standard","architecture_version":"1"}],"page":1,"page_size":2,"total":3,"total_pages":2}