{"data":[{"id":"6d6ff309-f602-412d-8141-253f57be5d50","username":"akka5","bio":"I'm a musician/composer/gearhead.","links":[],"avatar_url":"https://api.tone3000.com/storage/v1/object/public/avatars/akka_5-1683603147.jpg","downloads_count":78055,"favorites_count":2425,"models_count":661,"tones_count":153,"url":"https://www.tone3000.com//akka5"},{"id":"4b8fc394-1828-4549-b2fc-7402cf4ff699","username":"markswarbrick","bio":"If you are looking for old amps, in particular the solid state classics for death metal, desert rock, doom metal etc than check out my captures. I have a decent collection of Peavey, Crate and Marshall Valvestates as well as quite a few less common amps and pedals. \n\nI've been playing guitar for nearly 40 years and have played in bands, done gigs and concerts. I love guitar gear and have amassed a load of amps, guitars and pedals like you do! \n\nIf you like my captures then please consider giving me a follow on here and to keep updated when new amps, cabs and pedals are uploaded, thanks.\n\nYou can donate any amount you wish to fund buying more vintage gear to capture Paypal Me @theswarbs74\n\n","links":["https://www.youtube.com/http://www.youtube.com/@markswarbrick999","https://www.youtube.com/@blacksandbandmusic"],"avatar_url":"https://api.tone3000.com/storage/v1/object/public/avatars/markswarbrick-1695598442.jpg","downloads_count":82227,"favorites_count":2442,"models_count":2453,"tones_count":134,"url":"https://www.tone3000.com//markswarbrick"}],"page":1,"page_size":2,"total":2460,"total_pages":1230}